<svg width="139" height="137" viewBox="0 0 139 137" fill="none" xmlns="http://www.w3.org/2000/svg">
<path d="M138.404 68.5C138.404 105.994 107.563 136.404 69.5 136.404C31.4371 136.404 0.595745 105.994 0.595745 68.5C0.595745 31.0056 31.4371 0.595745 69.5 0.595745C107.563 0.595745 138.404 31.0056 138.404 68.5Z" fill="#08CA3E" fill-opacity="0.2" stroke="#08CA3E" stroke-width="1.19149"/>
<ellipse cx="69.9921" cy="68.9854" rx="41.4043" ry="40.8085" fill="#08CA3E"/>
<path d="M92.3291 56.8615L86.6769 51.2659L62.1839 75.5136L52.7636 66.1875L47.1113 71.7832L62.1839 86.7048L92.3291 56.8615Z" fill="white"/>
</svg>
