<svg width="7" height="11" viewBox="0 0 7 11" fill="none" xmlns="http://www.w3.org/2000/svg">
<path fill-rule="evenodd" clip-rule="evenodd" d="M6.17454 4.66266C6.38124 4.84236 6.39306 5.14524 6.201 5.34098L1.64259 9.97921C1.36534 10.2617 0.897027 10.2799 0.598099 10.02C0.299683 9.75996 0.282509 9.31976 0.559764 9.0373L4.45922 5.06901L0.262499 1.41755C-0.0359363 1.15706 -0.0531095 0.716864 0.224145 0.434406C0.50191 0.151927 0.970218 0.133657 1.26863 0.393658L6.17454 4.66266Z" fill="black" fill-opacity="0.8"/>
</svg>
