<svg width="11" height="7" viewBox="0 0 11 7" fill="none" xmlns="http://www.w3.org/2000/svg">
<path fill-rule="evenodd" clip-rule="evenodd" d="M5.46319 6.09317C5.27977 6.29657 4.97673 6.30289 4.78451 6.10731L0.229827 1.46541C-0.0475497 1.18307 -0.0573114 0.714508 0.208055 0.420351C0.473432 0.126705 0.913872 0.11753 1.19125 0.399868L5.08806 4.37075L8.81514 0.241037C9.081 -0.052619 9.52144 -0.0617949 9.79882 0.220543C10.0762 0.503393 10.086 0.971956 9.82059 1.2656L5.46319 6.09317Z" fill="black"/>
</svg>
