<svg width="16" height="16" viewBox="0 0 16 16" fill="none" xmlns="http://www.w3.org/2000/svg">
<path d="M8.25 14.25V5.75M3.75 2.75H12.75H3.75ZM4.25 9.25L8.25 5.75L12.25 9.25H4.25Z" stroke="black" stroke-width="1.5" stroke-linecap="round" stroke-linejoin="round"/>
</svg>
