<svg width="39" height="39" viewBox="0 0 39 39" fill="none" xmlns="http://www.w3.org/2000/svg">
<circle cx="19.5" cy="19.5" r="19.5" fill="#C4C4C4"/>
<path d="M29.1667 29.75V27.5833C29.1667 26.4341 28.6575 25.3319 27.7511 24.5192C26.8446 23.7065 25.6153 23.25 24.3334 23.25H14.6667C13.3848 23.25 12.1555 23.7065 11.249 24.5192C10.3426 25.3319 9.83337 26.4341 9.83337 27.5833V29.75" stroke="black" stroke-opacity="0.61" stroke-width="2" stroke-linecap="round" stroke-linejoin="round"/>
<path d="M19.5 18.9167C22.1693 18.9167 24.3333 16.9766 24.3333 14.5833C24.3333 12.1901 22.1693 10.25 19.5 10.25C16.8306 10.25 14.6666 12.1901 14.6666 14.5833C14.6666 16.9766 16.8306 18.9167 19.5 18.9167Z" stroke="black" stroke-opacity="0.61" stroke-width="2" stroke-linecap="round" stroke-linejoin="round"/>
</svg>
