<svg width="18" height="18" viewBox="0 0 18 18" fill="none" xmlns="http://www.w3.org/2000/svg">
<path d="M16.9043 4.00113C16.8526 4.00202 16.8016 4.0125 16.7538 4.03206L8.83885 7.3662C8.76318 7.39795 8.69857 7.45134 8.65312 7.51967C8.60767 7.58801 8.58341 7.66824 8.58337 7.75032V16.9162C8.58327 16.9849 8.60017 17.0526 8.63256 17.1132C8.66495 17.1738 8.71182 17.2255 8.76901 17.2636C8.82619 17.3017 8.89191 17.3251 8.96032 17.3316C9.02872 17.3382 9.09768 17.3277 9.16105 17.3011L17.0768 13.967C17.1526 13.9352 17.2173 13.8816 17.2627 13.8131C17.3082 13.7447 17.3324 13.6642 17.3323 13.582V4.41617C17.3321 4.36062 17.3208 4.30567 17.299 4.25455C17.2773 4.20344 17.2455 4.15718 17.2057 4.11851C17.1658 4.07984 17.1186 4.04954 17.0668 4.02938C17.0151 4.00922 16.9598 3.99962 16.9043 4.00113Z" fill="#C4C4C4"/>
<path d="M1.08666 3.99854C1.07199 3.99857 1.05732 3.99939 1.04273 4.00098C0.940459 4.01204 0.845895 4.06055 0.777247 4.13718C0.708598 4.21381 0.670719 4.31313 0.670903 4.41602V13.5819C0.670505 13.6637 0.694212 13.7439 0.739066 13.8123C0.783921 13.8808 0.847937 13.9345 0.923127 13.9668L8.83886 17.3009C8.90224 17.3275 8.9712 17.338 9.0396 17.3314C9.108 17.3249 9.17372 17.3015 9.23091 17.2634C9.28809 17.2253 9.33497 17.1737 9.36736 17.113C9.39974 17.0524 9.41664 16.9847 9.41654 16.916V7.75016C9.41651 7.66809 9.39224 7.58785 9.34679 7.51952C9.30134 7.45118 9.23673 7.39779 9.16106 7.36605L1.24939 4.0319C1.19794 4.00997 1.1426 3.99862 1.08666 3.99854Z" fill="#C4C4C4"/>
<path d="M9.00201 0.66678C8.94624 0.666091 8.89091 0.676606 8.83928 0.697704L0.923543 4.03185C0.847699 4.06353 0.78292 4.11695 0.737356 4.18537C0.691792 4.25379 0.66748 4.33416 0.66748 4.41637C0.66748 4.49858 0.691792 4.57896 0.737356 4.64738C0.78292 4.7158 0.847699 4.76921 0.923543 4.80089L8.83928 8.13504C8.8903 8.15644 8.94506 8.16746 9.00038 8.16746C9.0557 8.16746 9.11046 8.15644 9.16148 8.13504L17.0772 4.80089C17.1531 4.76921 17.2178 4.7158 17.2634 4.64738C17.309 4.57896 17.3333 4.49858 17.3333 4.41637C17.3333 4.33416 17.309 4.25379 17.2634 4.18537C17.2178 4.11695 17.1531 4.06353 17.0772 4.03185L9.16148 0.697704C9.11086 0.67703 9.05668 0.666522 9.00201 0.66678Z" fill="#C4C4C4"/>
<path d="M9.0005 0.668531C8.94452 0.667474 8.8889 0.677715 8.83696 0.698642L0.922134 4.03275C0.921863 4.03302 0.921592 4.0333 0.921322 4.03358C0.83669 4.06913 0.766164 4.13164 0.720702 4.2114C0.67524 4.29116 0.657387 4.3837 0.669915 4.47466V13.5834C0.669676 13.6651 0.693458 13.7451 0.738302 13.8134C0.783146 13.8817 0.847075 13.9353 0.922135 13.9675L8.83696 17.3016C8.83993 17.3028 8.84291 17.3038 8.84591 17.3049C8.84727 17.3054 8.84863 17.306 8.84999 17.3065C8.862 17.3111 8.87422 17.3152 8.8866 17.3187C8.89654 17.3215 8.90659 17.324 8.91671 17.3261C8.91699 17.3261 8.91726 17.3261 8.91754 17.3261C8.92752 17.328 8.93756 17.3297 8.94765 17.3309C8.95117 17.3315 8.95469 17.3321 8.95822 17.3326C8.96012 17.3326 8.96202 17.3326 8.96392 17.3326C8.97232 17.3331 8.98073 17.3334 8.98914 17.3334C8.99619 17.3338 9.00324 17.3341 9.0103 17.3342C9.01382 17.334 9.01735 17.3337 9.02087 17.3334C9.03093 17.3329 9.04098 17.3321 9.05098 17.3309C9.05234 17.3307 9.0537 17.3304 9.05506 17.3301C9.06625 17.3287 9.07738 17.3268 9.08842 17.3244C9.08978 17.3241 9.09114 17.3239 9.0925 17.3236C9.10264 17.3212 9.11268 17.3185 9.12261 17.3154C9.12369 17.3152 9.12477 17.3149 9.12586 17.3146C9.13743 17.3108 9.14883 17.3064 9.16003 17.3016L9.16165 17.3007L17.0757 13.9675C17.1512 13.9356 17.2156 13.8821 17.2609 13.8138C17.3062 13.7455 17.3304 13.6653 17.3303 13.5833V4.44859C17.3369 4.3613 17.3159 4.27415 17.2701 4.19951C17.2244 4.12486 17.1564 4.06651 17.0756 4.03275L13.2663 2.42795C13.2404 2.41371 13.2132 2.40225 13.1849 2.39377L9.15996 0.698642C9.10929 0.678246 9.05511 0.668015 9.0005 0.668531V0.668531ZM9.0005 1.53522L11.9881 2.79497L5.14723 5.67579L2.16127 4.41767L9.0005 1.53522ZM13.0621 3.24744L15.8389 4.41767L8.99887 7.29849L6.22038 6.12826L13.0621 3.24744ZM1.4998 5.0451L8.58149 8.02846V16.2901L1.4998 13.3067V5.0451ZM16.4971 5.0451V13.3067L9.41544 16.2901V8.02846L11.9523 6.95996L16.4971 5.0451ZM2.79914 10.3339C2.7842 10.3337 2.76927 10.3342 2.75439 10.3356C2.66103 10.3439 2.57323 10.3836 2.50517 10.448C2.4371 10.5125 2.39276 10.598 2.37931 10.6908C2.36586 10.7836 2.38408 10.8782 2.43103 10.9593C2.47798 11.0405 2.55091 11.1034 2.63804 11.138L4.20913 11.7996C4.25962 11.8208 4.31379 11.8319 4.36856 11.8322C4.42333 11.8325 4.47761 11.8219 4.52832 11.8012C4.57902 11.7805 4.62516 11.75 4.66408 11.7115C4.703 11.673 4.73395 11.6271 4.75517 11.5766C4.77638 11.5261 4.78744 11.4719 4.78771 11.4172C4.78798 11.3624 4.77746 11.3081 4.75675 11.2574C4.73604 11.2067 4.70554 11.1605 4.667 11.1216C4.62846 11.0827 4.58263 11.0517 4.53213 11.0305L2.96105 10.3689C2.90996 10.3465 2.85491 10.3346 2.79914 10.3339V10.3339ZM2.79914 12.0006C2.7842 12.0003 2.76927 12.0009 2.75439 12.0022C2.6607 12.0102 2.57248 12.0497 2.50407 12.1142C2.43566 12.1788 2.3911 12.2646 2.37761 12.3576C2.36413 12.4507 2.38252 12.5456 2.42981 12.6269C2.47709 12.7082 2.55048 12.7711 2.63804 12.8054L4.20913 13.4662C4.25962 13.4875 4.31379 13.4985 4.36856 13.4988C4.42333 13.4991 4.47761 13.4886 4.52832 13.4679C4.57902 13.4472 4.62516 13.4167 4.66408 13.3782C4.703 13.3396 4.73395 13.2938 4.75517 13.2433C4.77638 13.1928 4.78744 13.1386 4.78771 13.0838C4.78798 13.029 4.77746 12.9747 4.75675 12.924C4.73604 12.8733 4.70554 12.8272 4.667 12.7883C4.62846 12.7493 4.58263 12.7184 4.53213 12.6972L2.96105 12.0364C2.91002 12.0137 2.85496 12.0015 2.79914 12.0006V12.0006Z" fill="#666666"/>
</svg>
